Analysis – MA [46]15 Final Project
…
Simple feature collection with 21 features and 3 fields
Geometry type: MULTIPOINT
Dimension:     XY
Bounding box:  xmin: -118.6484 ymin: 0 xmax: 0 ymax: 34.3227
Geodetic CRS:  WGS 84
# A tibble: 21 × 4
   AREA.NAME   Crm.Cd.Desc           count                              geometry
   <chr>       <chr>                 <int>                      <MULTIPOINT [°]>
 1 77th Street VEHICLE - STOLEN        140 ((-118.3123 33.9418), (-118.3113 33.…
 2 Central     BURGLARY FROM VEHICLE   133 ((-118.2327 34.0383), (-118.2356 34.…
 3 Devonshire  VEHICLE - STOLEN         64 ((-118.5907 34.2681), (-118.4997 34.…
 4 Foothill    VEHICLE - STOLEN         63 ((-118.4361 34.2625), (-118.4306 34.…
 5 Harbor      VEHICLE - STOLEN         97 ((-118.3035 33.8573), (-118.2907 33.…
 6 Hollenbeck  VEHICLE - STOLEN         81 ((-118.1987 34.0915), (-118.2032 34.…
 7 Hollywood   VEHICLE - STOLEN         65 ((-118.304 34.0835), (-118.3051 34.0…
 8 Mission     VEHICLE - STOLEN         96 ((-118.4926 34.3197), (-118.4958 34.…
 9 N Hollywood VEHICLE - STOLEN         70 ((-118.3911 34.1959), (-118.379 34.2…
10 Newton      VEHICLE - STOLEN        114 ((-118.2362 34.0348), (-118.2388 34.…
# ℹ 11 more rows
…
print(most_frequent_other)

Simple feature collection with 21 features and 3 fields
Geometry type: MULTIPOINT
Dimension:     XY
Bounding box:  xmin: -118.6234 ymin: 0 xmax: 0 ymax: 34.3265
Geodetic CRS:  WGS 84
# A tibble: 21 × 4
   AREA.NAME   Crm.Cd.Desc                       count                  geometry
   <chr>       <chr>                             <int>          <MULTIPOINT [°]>
 1 77th Street CRIMINAL THREATS - NO WEAPON DIS…    25 ((-118.3294 33.9781), (-…
 2 Central     TRESPASSING                          69 ((0 0), (-118.2469 34.04…
 3 Devonshire  CRIMINAL THREATS - NO WEAPON DIS…    10 ((-118.5158 34.2611), (-…
 4 Foothill    VIOLATION OF COURT ORDER              9 ((0 0), (-118.4343 34.25…
 5 Harbor      VIOLATION OF RESTRAINING ORDER       23 ((-118.2419 33.7823), (-…
 6 Hollenbeck  VIOLATION OF RESTRAINING ORDER        8 ((0 0), (-118.1761 34.06…
 7 Hollywood   TRESPASSING                          21 ((0 0), (-118.3114 34.08…
 8 Mission     BRANDISH WEAPON                       9 ((-118.4357 34.3265), (-…
 9 N Hollywood TRESPASSING                          26 ((-118.3745 34.2027), (-…
10 Newton      CRIMINAL THREATS - NO WEAPON DIS…    11 ((-118.272 34.0269), (-1…
# ℹ 11 more rows
…
print(most_frequent_Violent_Crime)

Simple feature collection with 21 features and 3 fields
Geometry type: MULTIPOINT
Dimension:     XY
Bounding box:  xmin: -118.6505 ymin: 33.7189 xmax: -118.1585 ymax: 34.3248
Geodetic CRS:  WGS 84
# A tibble: 21 × 4
   AREA.NAME   Crm.Cd.Desc                       count                  geometry
   <chr>       <chr>                             <int>          <MULTIPOINT [°]>
 1 77th Street ASSAULT WITH DEADLY WEAPON, AGGR…    79 ((-118.309 33.9563), (-1…
 2 Central     BATTERY - SIMPLE ASSAULT             78 ((-118.2504 34.0404), (-…
 3 Devonshire  BATTERY - SIMPLE ASSAULT             35 ((-118.5754 34.2866), (-…
 4 Foothill    BATTERY - SIMPLE ASSAULT             33 ((-118.4238 34.2648), (-…
 5 Harbor      BATTERY - SIMPLE ASSAULT             38 ((-118.3041 33.8481), (-…
 6 Hollenbeck  BATTERY - SIMPLE ASSAULT             35 ((-118.197 34.0819), (-1…
 7 Hollywood   BATTERY - SIMPLE ASSAULT             49 ((-118.3019 34.0863), (-…
 8 Mission     INTIMATE PARTNER - SIMPLE ASSAULT    39 ((-118.4251 34.3183), (-…
 9 N Hollywood BATTERY - SIMPLE ASSAULT             39 ((-118.3911 34.1962), (-…
10 Newton      BATTERY - SIMPLE ASSAULT             54 ((-118.2436 34.0349), (-…
# ℹ 11 more rows
…
